{
  "project_info": {
    "project_number": "426225214796",
    "firebase_url": "https://group3-287919.firebaseio.com",
    "project_id": "group3-287919",
    "storage_bucket": "group3-287919.appspot.com"
  },
  "client": [
    {
      "client_info": {
        "mobilesdk_app_id": "1:426225214796:android:29bbce592445df04d95be9",
        "android_client_info": {
          "package_name": "com.example.group_3"
        }
      },
      "oauth_client": [
        {
          "client_id": "426225214796-fit1vuenv0sc6tl86s76qd96gjkqqg4m.apps.googleusercontent.com",
          "client_type": 3
        }
      ],
      "api_key": [
        {
          "current_key": "AIzaSyAj7KvutQ9iaeoOw9F23pYbbcAtcw5nJbE"
        }
      ],
      "services": {
        "appinvite_service": {
          "other_platform_oauth_client": [
            {
              "client_id": "426225214796-fit1vuenv0sc6tl86s76qd96gjkqqg4m.apps.googleusercontent.com",
              "client_type": 3
            }
          ]
        }
      }
    }
  ],
  "configuration_version": "1"
}